module gitlab.com/clock-8001/clock-8001

go 1.13

require (
	github.com/desertbit/timer v0.0.0-20180107155436-c41aec40b27f
	github.com/golang/glog v0.0.0-20160126235308-23def4e6c14b // indirect
	github.com/husl-colors/husl-go v2.0.0+incompatible // indirect
	github.com/hypebeast/go-osc v0.0.0-20200115085105-85fee7fed692
	github.com/jessevdk/go-flags v1.4.0
	github.com/kidoman/embd v0.0.0-20170508013040-d3d8c0c5c68d
	github.com/pebbe/zmq4 v1.2.0 // indirect
	github.com/tarm/serial v0.0.0-20180830185346-98f6abe2eb07
	github.com/veandco/go-sdl2 v0.4.1
	gitlab.com/Depili/go-rgb-led-matrix v0.0.0-20160725180610-c2da37d64860
	golang.org/x/sys v0.0.0-20200301153931-2f85c7ec1e52 // indirect
)

replace github.com/hypebeast/go-osc => github.com/SpComb/go-osc v0.0.0-20170806011531-31b2c921f3f8
